<?xml version="1.0" encoding="UTF-8"?>
<svg width="79px" height="271px" viewBox="0 0 79 271" version="1.1" xmlns="http://www.w3.org/2000/svg" xmlns:xlink="http://www.w3.org/1999/xlink">
    <!-- Generator: Sketch 57 (83077) - https://sketch.com -->
    <title>logo</title>
    <desc>Created with Sketch.</desc>
    <defs>
        <polygon id="path-1" points="0.0533628007 0.0668952009 26.9621032 0.0668952009 26.9621032 34.7760005 0.0533628007 34.7760005"></polygon>
    </defs>
    <g id="Page-1" stroke="none" stroke-width="1" fill="none" fill-rule="evenodd">
        <g id="Desktop" transform="translate(-472.000000, -199.000000)">
            <g id="logo" transform="translate(475.000000, 202.000000)">
                <g id="iconorooeda">
                    <circle id="Oval" stroke="#FFFFFF" stroke-width="5.1857684" cx="36.6389993" cy="36.6659993" r="36.6052493"></circle>
                    <path d="M22.7002495,48.161249 C22.7002495,50.651999 22.7002495,53.1359989 22.7002495,55.6267489 C22.7002495,55.9844989 22.7002495,56.3354989 22.7002495,56.6932489 C22.7002495,58.0499988 23.8949995,59.3459988 25.2922495,59.2852488 C26.6962495,59.2244988 27.8842494,58.1444988 27.8842494,56.6932489 C27.8842494,54.2024989 27.8842494,51.718499 27.8842494,49.227749 C27.8842494,48.869999 27.8842494,48.518999 27.8842494,48.161249 C27.8842494,46.8044991 26.6894995,45.5084991 25.2922495,45.5692491 C23.8882495,45.6299991 22.7002495,46.7032491 22.7002495,48.161249 L22.7002495,48.161249 Z" id="Path" fill="#FFFFFF" fill-rule="nonzero"></path>
                    <path d="M51.191999,55.8562489 C50.456249,55.1339989 49.727249,54.4117489 48.991499,53.6827489 C47.2297491,51.941249 45.4747491,50.206499 43.7129991,48.464999 C41.5867492,46.3589991 39.4537492,44.2597491 37.3274993,42.1537492 C35.4847493,40.3312492 33.6419993,38.5154992 31.7992494,36.6929993 C30.9014994,35.8087493 30.0172494,34.9042493 29.1059994,34.0334993 C29.0924994,34.0199993 29.0789994,34.0064993 29.0654994,33.9929993 C28.1002494,33.0412493 26.3519995,32.9534993 25.4002495,33.9929993 C24.4552495,35.0257493 24.3674995,36.6389993 25.4002495,37.6582493 C26.1359995,38.3804992 26.8649995,39.1027492 27.6007495,39.8317492 C29.3624994,41.5732492 31.1174994,43.3079991 32.8792493,45.0494991 C35.0054993,47.1554991 37.1384993,49.254749 39.2647492,51.360749 C41.1074992,53.1832489 42.9502491,54.9989989 44.7929991,56.8214989 C45.6907491,57.7057489 46.5749991,58.6102488 47.4862491,59.4809988 C47.4997491,59.4944988 47.5132491,59.5079988 47.5267491,59.5214988 C48.491999,60.4732488 50.240249,60.5609988 51.191999,59.5214988 C52.136999,58.4887488 52.217999,56.8754989 51.191999,55.8562489 L51.191999,55.8562489 Z" id="Path" fill="#FFFFFF" fill-rule="nonzero"></path>
                    <path d="M47.837249,27.2294995 C47.837249,27.8234994 47.7967491,28.4174994 47.7157491,29.0047494 C47.7494991,28.7752494 47.7764991,28.5457494 47.8102491,28.3162494 C47.6549991,29.4569994 47.3512491,30.5707494 46.9057491,31.6372494 C46.9934991,31.4279994 47.0812491,31.2254994 47.1689991,31.0162494 C46.7167491,32.0827494 46.1362491,33.0817493 45.4274991,33.9929993 C45.5624991,33.8174993 45.6974991,33.6419993 45.8324991,33.4664993 C45.1439991,34.3507493 44.3542491,35.1404993 43.4699991,35.8289993 C43.6454991,35.6939993 43.8209991,35.5589993 43.9964991,35.4239993 C43.0784991,36.1259993 42.0794992,36.7132493 41.0197492,37.1654993 C41.2289992,37.0777493 41.4314992,36.9899993 41.6407492,36.9022493 C40.5742492,37.3409993 39.4604992,37.6447493 38.3197492,37.8067492 C38.5492492,37.7729992 38.7787492,37.7459993 39.0082492,37.7122493 C37.8269992,37.8674992 36.6389993,37.8674992 35.4577493,37.7122493 C35.6872493,37.7459993 35.9167493,37.7729992 36.1462493,37.8067492 C35.0054993,37.6514993 33.8917493,37.3477493 32.8252493,36.9022493 C33.0344993,36.9899993 33.2369993,37.0777493 33.4462493,37.1654993 C32.3797494,36.7132493 31.3807494,36.1327493 30.4694994,35.4239993 C30.6449994,35.5589993 30.8204994,35.6939993 30.9959994,35.8289993 C30.1117494,35.1404993 29.3219994,34.3507493 28.6334994,33.4664993 C28.7684994,33.6419993 28.9034994,33.8174993 29.0384994,33.9929993 C28.3364994,33.0749993 27.7492494,32.0759994 27.2969995,31.0162494 C27.3847495,31.2254994 27.4724995,31.4279994 27.5602495,31.6372494 C27.1214995,30.5707494 26.8177495,29.4569994 26.6557495,28.3162494 C26.6894995,28.5457494 26.7164995,28.7752494 26.7502495,29.0047494 C26.5949995,27.8234994 26.5949995,26.6354995 26.7502495,25.4542495 C26.7164995,25.6837495 26.6894995,25.9132495 26.6557495,26.1427495 C26.8109995,25.0019995 27.1147495,23.8882495 27.5602495,22.8217495 C27.4724995,23.0309995 27.3847495,23.2334995 27.2969995,23.4427495 C27.7492494,22.3762496 28.3297494,21.3772496 29.0384994,20.4659996 C28.9034994,20.6414996 28.7684994,20.8169996 28.6334994,20.9924996 C29.3219994,20.1082496 30.1117494,19.3184996 30.9959994,18.6299996 C30.8204994,18.7649996 30.6449994,18.8999996 30.4694994,19.0349996 C31.3874994,18.3329996 32.3864994,17.7457496 33.4462493,17.2934997 C33.2369993,17.3812497 33.0344993,17.4689997 32.8252493,17.5567497 C33.8917493,17.1179997 35.0054993,16.8142497 36.1462493,16.6522497 C35.9167493,16.6859997 35.6872493,16.7129997 35.4577493,16.7467497 C36.6389993,16.5914997 37.8269992,16.5914997 39.0082492,16.7467497 C38.7787492,16.7129997 38.5492492,16.6859997 38.3197492,16.6522497 C39.4604992,16.8074997 40.5742492,17.1112497 41.6407492,17.5567497 C41.4314992,17.4689997 41.2289992,17.3812497 41.0197492,17.2934997 C42.0862492,17.7457496 43.0852491,18.3262496 43.9964991,19.0349996 C43.8209991,18.8999996 43.6454991,18.7649996 43.4699991,18.6299996 C44.3542491,19.3184996 45.1439991,20.1082496 45.8324991,20.9924996 C45.6974991,20.8169996 45.5624991,20.6414996 45.4274991,20.4659996 C46.1294991,21.3839996 46.7167491,22.3829996 47.1689991,23.4427495 C47.0812491,23.2334995 46.9934991,23.0309995 46.9057491,22.8217495 C47.3444991,23.8882495 47.6482491,25.0019995 47.8102491,26.1427495 C47.7764991,25.9132495 47.7494991,25.6837495 47.7157491,25.4542495 C47.7967491,26.0482495 47.837249,26.6354995 47.837249,27.2294995 C47.843999,28.5862494 49.025249,29.8822494 50.429249,29.8214994 C51.833249,29.7607494 53.0280273,28.6807494 53.0212489,27.2294995 C53.0077489,24.0569995 52.055999,20.8237496 50.199749,18.2317496 C49.153499,16.7737497 47.972249,15.5789997 46.5479991,14.4989997 C45.2992491,13.5539997 43.9019991,12.8587497 42.4372492,12.3254998 C36.4432493,10.1452498 29.2274994,12.1027498 25.1842495,17.0437497 C24.6374995,17.7187496 24.1109995,18.4139996 23.6654995,19.1564996 C23.2132495,19.9124996 22.8622495,20.7089996 22.5247496,21.5257496 C21.9172496,23.0107495 21.6134996,24.5902495 21.4852496,26.1899995 C21.2422496,29.3557494 22.0589996,32.6632494 23.7059995,35.3699993 C25.2989995,37.9889992 27.6952494,40.2299992 30.5032494,41.4989992 C31.3064994,41.8634992 32.1299994,42.1942492 32.9804993,42.4372492 C33.8512493,42.6802492 34.7422493,42.8152491 35.6467493,42.9232491 C37.2667493,43.1189991 38.9204992,42.9907491 40.5202492,42.6734992 C46.6627491,41.4517492 51.806249,36.1732493 52.778249,29.9699994 C52.9199989,29.0587494 53.0280273,28.1542494 53.0280273,27.2294995 C53.0347489,25.8727495 51.833249,24.5767495 50.435999,24.6374995 C49.025249,24.7049995 47.843999,25.7782495 47.837249,27.2294995 Z" id="Path" fill="#FFFFFF" fill-rule="nonzero"></path>
                </g>
                <g id="Group-14" transform="translate(24.500000, 188.000000) rotate(-90.000000) translate(-24.500000, -188.000000) translate(-55.000000, 170.000000)">
                    <path d="M6.13875248,20.0011143 L6.13875248,34.2171545 L3.24000004e-05,34.2171545 L3.24000004e-05,8.64685811 L5.63104447,8.64685811 L5.63104447,11.1391741 C7.2465085,8.78531412 8.53883651,8.04681011 11.1697165,8.04681011 L11.6313086,8.04681011 L11.6313086,13.9548422 C7.93878851,14.0470742 6.13875248,16.0317902 6.13875248,20.0011143" id="Fill-1" fill="#FFFFFF"></path>
                    <path d="M26.3088651,13.677833 C22.2933171,13.677833 18.9239331,17.139557 18.9239331,21.3396771 C18.9239331,25.7244771 22.2009771,29.1862012 26.3549811,29.1862012 C30.4167532,29.1862012 33.7399132,25.7244771 33.7399132,21.4320171 C33.7399132,17.185565 30.4167532,13.677833 26.3088651,13.677833 M26.3088651,34.8171053 C18.831701,34.8171053 12.739097,28.8169492 12.739097,21.4320171 C12.739097,14.093201 18.831701,8.04682091 26.2627491,8.04682091 C33.9707092,8.04682091 39.9248573,14.000861 39.9248573,21.6165891 C39.9248573,28.8169492 33.7399132,34.8171053 26.3088651,34.8171053" id="Fill-3" fill="#FFFFFF"></path>
                    <path d="M55.8482911,13.677833 C51.8327431,13.677833 48.463359,17.139557 48.463359,21.3396771 C48.463359,25.7244771 51.7404031,29.1862012 55.8944071,29.1862012 C59.9561792,29.1862012 63.2793392,25.7244771 63.2793392,21.4320171 C63.2793392,17.185565 59.9561792,13.677833 55.8482911,13.677833 M55.8482911,34.8171053 C48.371019,34.8171053 42.278523,28.8169492 42.278523,21.4320171 C42.278523,14.093201 48.371019,8.04682091 55.8021751,8.04682091 C63.5101352,8.04682091 69.4642833,14.000861 69.4642833,21.6165891 C69.4642833,28.8169492 63.2793392,34.8171053 55.8482911,34.8171053" id="Fill-5" fill="#FFFFFF"></path>
                    <path d="M85.3877171,13.677833 C81.7414211,13.677833 79.248997,15.477869 78.279805,18.755021 L92.4495132,18.755021 C91.6648932,15.477869 89.1724692,13.677833 85.3877171,13.677833 M98.2652053,24.1552371 L78.464377,24.1552371 C79.202773,27.2476012 81.8798771,29.1862012 85.5261731,29.1862012 C88.0647132,29.1862012 89.5879452,28.4939212 91.1571852,26.6475532 L97.8498373,26.6475532 C96.1420333,31.9094212 90.8341572,34.8171053 85.6646291,34.8171053 C77.864329,34.8171053 71.817949,29.0015212 71.817949,21.5242491 C71.817949,14.000861 77.771989,8.04682091 85.2954851,8.04682091 C92.9111052,8.04682091 98.4960013,13.862405 98.4960013,21.8012691 C98.4960013,22.7243451 98.4497773,23.2782771 98.2652053,24.1552371" id="Fill-7" fill="#FFFFFF"></path>
                    <g id="Group-11" transform="translate(101.304001, 0.041148)">
                        <mask id="mask-2" fill="white">
                            <use xlink:href="#path-1"></use>
                        </mask>
                        <g id="Clip-10"></g>
                        <path d="M13.715471,13.3135274 C9.51524293,13.3135274 6.23819888,16.7291354 6.23819888,21.0678195 C6.23819888,25.5910755 9.56146693,29.1450316 13.853927,29.1450316 C18.007931,29.1450316 21.2849751,25.6833075 21.2849751,21.2523915 C21.2849751,16.7752514 18.007931,13.3135274 13.715471,13.3135274 L13.715471,13.3135274 Z M21.3311991,34.1759957 L21.3311991,30.8527276 C18.8848911,33.6221716 16.346351,34.7760437 12.884627,34.7760437 C5.63815087,34.7760437 0.0533628007,28.9142356 0.0533628007,21.3446235 C0.0533628007,13.6828874 5.68437488,7.6825153 12.838511,7.6825153 C16.069331,7.6825153 19.0233471,8.88261132 20.8233831,10.8673273 L20.8233831,0.0668952009 L26.9621032,0.0668952009 L26.9621032,34.1759957 L21.3311991,34.1759957 Z" id="Fill-9" fill="#FFFFFF" mask="url(#mask-2)"></path>
                    </g>
                    <path d="M145.481488,13.677833 C141.096688,13.677833 138.004216,17.001101 138.004216,21.6628131 C138.004216,26.1399531 141.096688,29.1862012 145.57372,29.1862012 C150.23554,29.1862012 153.004876,25.8629331 153.004876,21.6165891 C153.004876,16.954877 149.866288,13.677833 145.481488,13.677833 L145.481488,13.677833 Z M153.189448,34.2171653 L153.189448,30.8938972 C150.743248,33.6633412 148.29694,34.8171053 144.69676,34.8171053 C137.219596,34.8171053 131.81938,29.2323172 131.81938,21.5242491 C131.81938,13.724057 137.265712,8.04682091 144.835324,8.04682091 C148.527736,8.04682091 151.066276,9.24691692 153.189448,12.062369 L153.189448,8.64686891 L158.820461,8.64686891 L158.820461,34.2171653 L153.189448,34.2171653 Z" id="Fill-12" fill="#FFFFFF"></path>
                </g>
                <path d="M25.9892002,182.8852 L26.3204003,182.8852 C27.6728003,182.8852 28.8320004,183.1336 29.7704004,183.658 C30.7640004,184.1824 31.4816005,184.9828 31.8956005,186.0316 L29.8532004,186.8596 C29.6324004,186.28 29.2736004,185.8936 28.7216003,185.59 C28.1144003,185.2588 27.3140003,185.0932 26.3204003,185.0932 L25.9892002,185.0932 C24.3056002,185.0932 23.4224001,185.4244 22.9532001,185.728 C22.4288001,186.0316 22.2080001,186.4456 22.2080001,187.0528 C22.2080001,187.6324 22.4288001,188.0464 22.9532001,188.3776 C23.4224001,188.6536 24.3056002,188.9848 25.9892002,188.9848 C27.7556003,188.9848 29.1908004,189.316 30.2120004,189.9508 C30.7640004,190.3096 31.2332004,190.778801 31.5368005,191.303201 C31.8404005,191.855201 31.9784005,192.490001 31.9784005,193.152401 C31.9784005,193.842401 31.8404005,194.449601 31.5368005,195.001601 C31.2332004,195.553601 30.7640004,195.995201 30.2120004,196.354001 C29.1908004,196.988801 27.7556003,197.320001 25.9892002,197.320001 L25.6580002,197.320001 C24.3056002,197.320001 23.1464001,197.071601 22.2080001,196.547201 C21.2144,196.022801 20.4968,195.222401 20.0828,194.173601 L22.1252001,193.345601 C22.3460001,193.925201 22.7324001,194.311601 23.2568001,194.615201 C23.8916002,194.946401 24.6920002,195.112001 25.6580002,195.112001 L25.9892002,195.112001 C27.6728003,195.112001 28.5836003,194.780801 29.0252004,194.477201 C29.5496004,194.173601 29.7704004,193.759601 29.7704004,193.152401 C29.7704004,192.572801 29.5496004,192.158801 29.0252004,191.827601 C28.5836003,191.551601 27.6728003,191.192801 25.9892002,191.192801 C24.2228002,191.192801 22.8152001,190.889201 21.7940001,190.2544 C21.2144,189.8956 20.7728,189.4264 20.4692,188.902 C20.1656,188.35 20,187.7152 20,187.0528 C20,186.3628 20.1656,185.7556 20.4692,185.2036 C20.7728,184.6516 21.2144,184.21 21.7940001,183.8512 C22.8152001,183.2164 24.2228002,182.8852 25.9892002,182.8852 Z M40.0100008,182.8852 L43.7912009,182.8852 L43.7912009,185.0932 L40.0100008,185.0932 L40.0100008,191.938001 C40.0100008,192.959201 40.3136008,193.759601 40.8932008,194.284001 C41.5280009,194.836001 42.5216009,195.112001 43.7912009,195.112001 L43.7912009,197.320001 C41.9420009,197.320001 40.4792008,196.850801 39.4304008,195.940001 C38.3540007,195.001601 37.8020007,193.621601 37.8020007,191.938001 L37.8020007,185.0932 L35.8424006,185.0932 L35.8424006,182.8852 L37.8020007,182.8852 L37.8020007,178 L40.0100008,178 L40.0100008,182.8852 Z M59.6336016,197.320001 L57.4256015,197.320001 L57.4256015,196.354001 C56.4320014,196.988801 55.1624014,197.320001 53.6444013,197.320001 C51.7952013,197.320001 50.3324012,196.850801 49.2836012,195.940001 C48.2072011,195.001601 47.6552011,193.621601 47.6552011,191.938001 L47.6552011,182.8852 L49.8632012,182.8852 L49.8632012,191.938001 C49.8632012,192.959201 50.1668012,193.759601 50.7464012,194.284001 C51.3812012,194.836001 52.3748013,195.112001 53.6444013,195.112001 C54.9140014,195.112001 55.9076014,194.836001 56.5424015,194.284001 C57.1220015,193.759601 57.4256015,192.959201 57.4256015,191.938001 L57.4256015,182.8852 L59.6336016,182.8852 L59.6336016,197.320001 Z M75.4760022,178 L75.4760022,197.320001 L73.2680021,197.320001 L73.2680021,196.354001 C72.2744021,196.988801 71.004802,197.320001 69.486802,197.320001 C67.6376019,197.320001 66.1748018,196.850801 65.1260018,195.940001 C64.0496018,195.001601 63.4976017,193.621601 63.4976017,191.938001 L63.4976017,188.2672 C63.4976017,186.5836 64.0496018,185.2036 65.1260018,184.2652 C66.1748018,183.3544 67.6376019,182.8852 69.486802,182.8852 C71.004802,182.8852 72.2744021,183.2164 73.2680021,183.8512 L73.2680021,178 L75.4760022,178 Z M69.486802,185.0932 C68.2172019,185.0932 67.2236019,185.3692 66.5888019,185.9212 C65.9816018,186.4456 65.7056018,187.246 65.7056018,188.2672 L65.7056018,191.938001 C65.7056018,192.959201 65.9816018,193.759601 66.5888019,194.284001 C67.2236019,194.836001 68.2172019,195.112001 69.486802,195.112001 C70.756402,195.112001 71.7500021,194.836001 72.3848021,194.284001 C72.9644021,193.759601 73.2680021,192.959201 73.2680021,191.938001 L73.2680021,188.2672 C73.2680021,187.246 72.9644021,186.4456 72.3848021,185.9212 C71.7500021,185.3692 70.756402,185.0932 69.486802,185.0932 Z M80.7200024,178 C81.4928024,178 82.1000025,178.6072 82.1000025,179.38 C82.1000025,180.1252 81.4928024,180.76 80.7200024,180.76 C79.9748024,180.76 79.3400024,180.1252 79.3400024,179.38 C79.3400024,178.6072 79.9748024,178 80.7200024,178 Z M81.8240025,197.320001 L79.6160024,197.320001 L79.6160024,182.8852 L81.8240025,182.8852 L81.8240025,197.320001 Z M91.9532029,182.8852 C93.8024029,182.8852 95.265203,183.3544 96.314003,184.2652 C97.3904031,185.2036 97.9424031,186.5836 97.9424031,188.2672 L97.9424031,191.938001 C97.9424031,193.621601 97.3904031,195.001601 96.314003,195.940001 C95.265203,196.850801 93.8024029,197.320001 91.9532029,197.320001 C90.1316028,197.320001 88.6688027,196.850801 87.6200027,195.940001 C86.5436026,195.001601 85.9640026,193.621601 85.9640026,191.938001 L85.9640026,188.2672 C85.9640026,186.5836 86.5436026,185.2036 87.6200027,184.2652 C88.6688027,183.3544 90.1316028,182.8852 91.9532029,182.8852 Z M91.9532029,185.0932 C90.6836028,185.0932 89.6900028,185.3692 89.0552027,185.9212 C88.4756027,186.4456 88.1720027,187.246 88.1720027,188.2672 L88.1720027,191.938001 C88.1720027,192.959201 88.4756027,193.759601 89.0552027,194.284001 C89.6900028,194.836001 90.6836028,195.112001 91.9532029,195.112001 C93.2228029,195.112001 94.2164029,194.836001 94.851203,194.284001 C95.458403,193.759601 95.734403,192.959201 95.734403,191.938001 L95.734403,188.2672 C95.734403,187.246 95.458403,186.4456 94.851203,185.9212 C94.2164029,185.3692 93.2228029,185.0932 91.9532029,185.0932 Z" id="studio" fill="#FFFFFF" fill-rule="nonzero" transform="translate(58.971202, 187.660000) rotate(-90.000000) translate(-58.971202, -187.660000) "></path>
            </g>
        </g>
    </g>
</svg>